{
  "project_info": {
    "project_number": "206915254091",
    "firebase_url": "https://crud-209d5-default-rtdb.firebaseio.com",
    "project_id": "crud-209d5",
    "storage_bucket": "crud-209d5.appspot.com"
  },
  "client": [
    {
      "client_info": {
        "mobilesdk_app_id": "1:206915254091:android:34e00a1f1ab7a73fa31ace",
        "android_client_info": {
          "package_name": "com.example.crud"
        }
      },
      "oauth_client": [
        {
          "client_id": "206915254091-7ghom6d9j7pgekf2omebnt8pkfle71ul.apps.googleusercontent.com",
          "client_type": 3
        }
      ],
      "api_key": [
        {
          "current_key": "AIzaSyAjgK9WqaUlJj82HG022YK59L8zUpzPo2w"
        }
      ],
      "services": {
        "appinvite_service": {
          "other_platform_oauth_client": [
            {
              "client_id": "206915254091-7ghom6d9j7pgekf2omebnt8pkfle71ul.apps.googleusercontent.com",
              "client_type": 3
            }
          ]
        }
      }
    },
    {
      "client_info": {
        "mobilesdk_app_id": "1:206915254091:android:dfa200cc1d4ea391a31ace",
        "android_client_info": {
          "package_name": "com.example.jcrud"
        }
      },
      "oauth_client": [
        {
          "client_id": "206915254091-7ghom6d9j7pgekf2omebnt8pkfle71ul.apps.googleusercontent.com",
          "client_type": 3
        }
      ],
      "api_key": [
        {
          "current_key": "AIzaSyAjgK9WqaUlJj82HG022YK59L8zUpzPo2w"
        }
      ],
      "services": {
        "appinvite_service": {
          "other_platform_oauth_client": [
            {
              "client_id": "206915254091-7ghom6d9j7pgekf2omebnt8pkfle71ul.apps.googleusercontent.com",
              "client_type": 3
            }
          ]
        }
      }
    }
  ],
  "configuration_version": "1"
}